{
    "Accounts": [],
    "AnimationLimit": 1.0,
    "AudioCommand": "",
    "AuthToken": "",
    "ChannelsNot": [],
    "ConvertLimit": 10.0,
    "CommentChannel": "",
    "CommentImageHeight": 128.0,
    "CommentImageScale": 1.0,
    "CommentImageType": 1,
    "CommentImageWidth": 128.0,
    "CommentPerLoading": 10.0,
    "CommentServer": "https://comments.odysee.tv/api/v2",
    "ContentPerLoading": 10.0,
    "DocumentCommand": "LBRY-GTK-Document",
    "EnableComments": true,
    "EnableMarkdown": true,
    "Following": [],
    "ListChannelWidth": 160.0,
    "BoxPadding": 1.0,
    "GridTitleRows": 2.0,
    "HideDisliked": false,
    "HomeData": "[]",
    "HomeFunction": "Help",
    "HomeType": 0,
    "ImageCommand": "",
    "ImageHeight": 256.0,
    "ImageScale": 1.0,
    "ImageType": 1,
    "ImageWidth": 256.0,
    "Keyboard": {
        "About": "",
        "Add": "",
        "AdvancedSearch": "0 c",
        "BackHistory": "1 s",
        "BackOnCurrent": "",
        "BackOnNew": "",
        "BalanceOnCurrent": "",
        "BalanceOnNew": "",
        "Block": "",
        "Boost": "",
        "ChannelOnCurrent": "",
        "ChannelOnNew": "",
        "ChannelsOnCurrent": "",
        "ChannelsOnNew": "",
        "Close": "0 b",
        "CollectionsOnCurrent": "",
        "CollectionsOnNew": "",
        "CommentChannelOnCurrent": "",
        "CommentChannelOnNew": "",
        "CommentChannels": "",
        "CommentDelete": "",
        "CommentDislike": "",
        "CommentEdit": "",
        "CommentHeart": "",
        "CommentLike": "",
        "CommentPost": "",
        "CommentProfile": "",
        "CommentPublicationsOnCurrent": "",
        "CommentPublicationsOnNew": "",
        "CommentReply": "",
        "CommentReplyText": "",
        "CommentSave": "",
        "CommentTip": "",
        "CommentUnhide": "",
        "Comments": "0 2",
        "ContentOnCurrent": "",
        "ContentOnNew": "",
        "Data": "0 5",
        "Description": "0 1",
        "DiscoverOnCurrent": "",
        "DiscoverOnNew": "",
        "Download": "",
        "Follow": "",
        "FollowedOnCurrent": "",
        "FollowedOnNew": "",
        "FollowingOnCurrent": "",
        "FollowingOnNew": "",
        "ForwardHistory": "1 d",
        "ForwardOnCurrent": "",
        "ForwardOnNew": "",
        "HelpOnCurrent": "",
        "HelpOnNew": "",
        "HomeOnCurrent": "",
        "HomeOnNew": "",
        "InboxOnCurrent": "",
        "InboxOnNew": "",
        "LBRY-GTK": "",
        "LibraryOnCurrent": "",
        "LibraryOnNew": "",
        "Link": "",
        "Links": "0 4",
        "MainOnCurrent": "1 f",
        "MainOnNew": "1 g",
        "MainSelectNext": "1 j",
        "MainSelectPrevious": "1 h",
        "MarkdownDown": "0 t",
        "MarkdownUp": "0 r",
        "Menu": "1 m",
        "MoveDown": "0 s",
        "MoveLeft": "0 a",
        "MoveRight": "0 d",
        "MoveUp": "0 w",
        "NativeOnCurrent": "",
        "NativeOnNew": "",
        "NewPublicationOnCurrent": "",
        "NewPublicationOnNew": "",
        "NextPage": "1 z",
        "PageOnCurrent": "0 f",
        "PageOnNew": "0 g",
        "PageSelectNext": "0 j",
        "PageSelectPrevious": "0 h",
        "PlayOnCurrent": "",
        "PlayOnNew": "",
        "PreviousPage": "1 o",
        "RSS": "",
        "Refresh": "",
        "RelatedOnCurrent": "",
        "RelatedOnNew": "",
        "Repost": "",
        "ScrollDown": "0 e",
        "ScrollUp": "0 q",
        "Search": "",
        "SettingsOnCurrent": "",
        "SettingsOnNew": "",
        "Share": "",
        "StatusOnCurrent": "",
        "StatusOnNew": "",
        "TagSelect": "0 y",
        "Tags": "0 3",
        "Thumbnail": "0 x",
        "Tip": "",
        "UploadsOnCurrent": "",
        "UploadsOnNew": "",
        "YourTagsOnCurrent": "",
        "YourTagsOnNew": ""
    },
    "Languages": [],
    "LinkCommand": "",
    "LinkSite": 0,
    "ListDisplay": 0,
    "MetadataShowAll": false,
    "MetaServer": "https://api.odysee.com",
    "MouseBackAndForward": true,
    "Order": "creation_height",
    "PlayCommand": "",
    "Profile": true,
    "ProfileCircling": true,
    "ProfileSize": 64.0,
    "PublicationProfile": true,
    "PublicationProfileCircling": true,
    "PublicationProfileSize": 32.0,
    "PromoteLBRYGTK": false,
    "RSSSite": 0,
    "ReplyIndent": 10.0,
    "ReplySeparator": 5.0,
    "Session": {
        "Binary": "lbrynet start",
        "DeveloperMode": false,
        "EnableMetaService": true,
        "MenuIcon": 1,
        "MenuType": 0,
        "Minimized": false,
        "NewBinary": "",
        "NewServer": "",
        "PageExpand": true,
        "PageWidth": 128.0,
        "Server": "http://localhost:5279",
        "Start": true,
        "Stop": true,
        "Timeout": 30.0,
        "Tray": true,
        "TrayMinimized": false,
        "WindowHeight": 480.0,
        "WindowSize": false,
        "WindowWidth": 640.0
    },
    "ShareSite": 0,
    "ShowMature": false,
    "TagsLocal": [],
    "TagsNot": [],
    "TagsShared": [],
    "ThumbnailRounding": true,
    "ThumbnailWidth": 160.0,
    "VideoCommand": ""
}
